FORMAT: [DIP Variable name - must matched exactly from DIP],[Unit of Variable],[Variable datatype],[Number of significant figures (or decimal points) if float],[Lower threshold of variable],[Upper threshold of variable]
# LHC Stats
dip/acc/LHC/Beam/Intensity/Beam2/DipData,,float-sf,6,,
dip/acc/LHC/Beam/Energy/DipData,,float-sf,6,,
